{
  "MCA": 10,
  "medidas": 48,
  "FatorNivelCorrigido": 85,
  "CurvaChave": "50      1.12\n        51      1.22\n        52      1.33\n        53      1.45\n        54      1.57\n        55      1.69\n        56      1.82\n        57      1.96\n        58      2.09\n        59      2.24\n        60      2.38\n        61      2.53\n        62      2.69\n        63      2.85\n        64      3.01\n        65      3.18\n        66      3.35\n        67      3.52\n        68      3.70\n        69      3.89\n        70      4.08\n        71      4.27\n        72      4.47\n        73      4.67\n        74      4.87\n        75      5.08\n        76      5.29\n        77      5.51\n        78      5.73\n        79      5.96\n        80      6.19\n        81      6.42\n        82      6.66\n        83      6.90\n        84      7.14\n        85      7.39\n        86      7.65\n        87      7.90\n        88      8.16\n        89      8.43\n        90      8.70\n        91      8.97\n        92      9.25\n        93      9.53\n        94      9.81\n        95     10.10\n        96     10.40\n        97     10.69\n        98     10.99\n        99     11.30\n       100     11.60\n       101     11.92\n       102     12.23\n       103     12.55\n       104     12.87\n       105     13.20\n       106     13.53\n       107     13.87\n       108     14.20\n       109     14.55\n       110     14.89\n       111     15.24\n       112     15.60\n       113     15.95\n       114     16.31\n       115     16.68\n       116     17.05\n       117     17.42\n       118     17.80\n       119     18.18\n       120     18.56\n       121     18.95\n       122     19.34\n       123     19.73\n       124     20.13\n       125     20.53\n       126     20.94\n       127     21.35\n       128     21.76\n       129     22.18\n       130     22.60\n       131     23.02\n       132     23.45\n       133     23.88\n       134     24.32\n       135     24.76\n       136     25.20\n       137     25.65\n       138     26.10\n       139     26.55\n       140     27.01\n       141     27.47\n       142     27.93\n       143     28.40\n       144     28.87\n       145     29.35\n       146     29.82\n       147     30.31\n       148     30.79\n       149     31.28\n       150     31.78\n       151     32.27\n       152     32.77\n       153     33.28\n       154     33.78\n       155     34.29\n       156     34.81\n       157     35.33\n       158     35.85\n       159     36.37\n       160     36.90\n       161     37.44\n       162     37.97\n       163     38.51\n       164     39.05\n       165     39.60\n       166     40.15\n       167     40.70\n       168     41.26\n       169     41.82\n       170     42.38\n       171     42.95\n       172     43.52\n       173     44.10\n       174     44.68\n       175     45.26\n       176     45.84\n       177     46.43\n       178     47.02\n       179     47.62\n       180     48.22\n       181     48.82\n       182     49.43\n       183     50.04\n       184     50.65\n       185     51.27\n       186     51.89\n       187     52.51\n       188     53.14\n       189     53.77\n       190     54.40\n       191     55.04\n       192     55.68\n       193     56.32\n       194     56.97\n       195     57.62\n       196     58.27\n       197     58.93\n       198     59.59\n       199     60.26\n       200     60.93\n       201     61.60\n       202     62.27\n       203     62.95\n       204     63.63\n       205     64.32\n       206     65.01\n       207     65.70\n       208     66.39\n       209     67.09\n       210     67.80\n       211     68.50\n       212     69.21\n       213     69.92\n       214     70.64\n       215     71.36\n       216     72.08\n       217     72.81\n       218     73.54\n       219     74.27\n       220     75.00\n       221     75.74\n       222     76.49\n       223     77.23\n       224     77.98\n       225     78.74\n       226     79.49\n       227     80.25\n       228     81.02\n       229     81.78\n       230     82.55\n       231     83.32\n       232     84.10\n       233     84.88\n       234     85.66\n       235     86.45\n       236     87.24\n       237     88.03\n       238     88.83\n       239     89.63\n       240     90.43\n       241     91.41\n       242     92.63\n       243     93.86\n       244     95.09\n       245     96.33\n       246     97.58\n       247     98.84\n       248    100.10\n       249    101.37\n       250    102.65\n       251    103.93\n       252    105.23\n       253    106.53\n       254    107.83\n       255    109.15\n       256    110.47\n       257    111.80\n       258    113.14\n       259    114.48\n       260    115.84\n       261    117.20\n       262    118.56\n       263    119.94\n       264    121.32\n       265    122.71\n       266    124.11\n       267    125.51\n       268    126.92\n       269    128.34\n       270    129.77\n       271    131.20\n       272    132.64\n       273    134.09\n       274    135.54\n       275    137.01\n       276    138.48\n       277    139.95\n       278    141.44\n       279    142.93\n       280    144.43\n       281    145.94\n       282    147.45\n       283    148.97\n       284    150.50\n       285    152.03\n       286    153.58\n       287    155.13\n       288    156.68\n       289    158.25\n       290    159.82\n       291    161.40\n       292    162.99\n       293    164.58\n       294    166.18\n       295    167.79\n       296    169.40\n       297    171.03\n       298    172.66\n       299    174.29\n       300    175.94\n       301    177.59\n       302    179.25\n       303    180.91\n       304    182.59\n       305    184.27\n       306    185.95\n       307    187.65\n       308    189.35\n       309    191.06\n       310    192.77\n       311    194.50\n       312    196.23\n       313    197.96\n       314    199.71\n       315    201.46\n       316    203.22\n       317    204.98\n       318    206.76\n       319    208.54\n       320    210.32\n       321    212.12\n       322    213.92\n       323    215.73\n       324    217.54\n       325    219.36\n       326    221.19\n       327    223.03\n       328    224.87\n       329    226.73\n       330    228.58\n       331    230.45\n       332    232.32\n       333    234.20\n       334    236.09\n       335    237.98\n       336    239.88\n       337    241.79\n       338    243.70\n       339    245.62\n       340    247.55\n       341    249.49\n       342    251.43\n       343    253.38\n       344    255.33\n       345    257.30\n       346    259.27\n       347    261.25\n       348    263.23\n       349    265.22\n       350    267.22\n       351    269.23\n       352    271.24\n       353    273.26\n       354    275.28\n       355    277.32\n       356    279.36\n       357    281.41\n       358    283.46\n       359    285.52\n       360    287.59\n       361    289.66\n       362    291.75\n       363    293.84\n       364    295.93\n       365    298.04\n       366    300.15\n       367    302.26\n       368    304.39\n       369    306.52\n       370    308.65\n       371    310.80\n       372    312.95\n       373    315.11\n       374    317.27\n       375    319.45\n       376    321.63\n       377    323.81\n       378    326.00\n       379    328.20\n       380    330.41\n       381    332.63\n       382    334.85\n       383    337.07\n       384    339.31\n       385    341.55\n       386    343.80\n       387    346.05\n       388    348.31\n       389    350.58\n       390    352.86\n       391    355.14\n       392    357.43\n       393    359.73\n       394    362.03\n       395    364.34\n       396    366.65\n       397    368.98\n       398    371.31\n       399    373.65\n       400    375.99",
  "codigoPLU": "2143087",
  "codigoFLU": "58519030",
  "ANA": true
}