{
  "MCA": 10,
  "medidas": 48,
  "FatorNivelCorrigido": 280,
  "CurvaChave": "302      0.01\n       303      0.02\n       304      0.03\n       305      0.04\n       306      0.06\n       307      0.07\n       308      0.09\n       309      0.11\n       310      0.13\n       311      0.16\n       312      0.18\n       313      0.21\n       314      0.24\n       315      0.27\n       316      0.30\n       317      0.33\n       318      0.37\n       319      0.40\n       320      0.44\n       321      0.48\n       322      0.52\n       323      0.56\n       324      0.60\n       325      0.64\n       326      0.68\n       327      0.73\n       328      0.78\n       329      0.83\n       330      0.87\n       331      0.92\n       332      0.98\n       333      1.03\n       334      1.08\n       335      1.14\n       336      1.19\n       337      1.25\n       338      1.31\n       339      1.37\n       340      1.43\n       341      1.49\n       342      1.55\n       343      1.62\n       344      1.68\n       345      1.75\n       346      1.81\n       347      1.88\n       348      1.95\n       349      2.02\n       350      2.09\n       351      2.16\n       352      2.23\n       353      2.31\n       354      2.38\n       355      2.46\n       356      2.53\n       357      2.61\n       358      2.69\n       359      2.77\n       360      2.85\n       361      2.93\n       362      3.01\n       363      3.10\n       364      3.18\n       365      3.27\n       366      3.35\n       367      3.44\n       368      3.53\n       369      3.62\n       370      3.71\n       371      3.80\n       372      3.89\n       373      3.98\n       374      4.08\n       375      4.17\n       376      4.27\n       377      4.36\n       378      4.46\n       379      4.56\n       380      4.65\n       381      4.75\n       382      4.86\n       383      4.96\n       384      5.06\n       385      5.16\n       386      5.27\n       387      5.37\n       388      5.48\n       389      5.58\n       390      5.69\n       391      5.80\n       392      5.91\n       393      6.02\n       394      6.13\n       395      6.24\n       396      6.35\n       397      6.47\n       398      6.58\n       399      6.69\n       400      6.81\n       401      6.93\n       402      7.04\n       403      7.16\n       404      7.28\n       405      7.40\n       406      7.52\n       407      7.64\n       408      7.76\n       409      7.89\n       410      8.01\n       411      8.14\n       412      8.26\n       413      8.39\n       414      8.51\n       415      8.64\n       416      8.77\n       417      8.90\n       418      9.03\n       419      9.16\n       420      9.29\n       421      9.43\n       422      9.56\n       423      9.69\n       424      9.83\n       425      9.96\n       426     10.10\n       427     10.24\n       428     10.37\n       429     10.51\n       430     10.65\n       431     10.79\n       432     10.93\n       433     11.07\n       434     11.22\n       435     11.36\n       436     11.50\n       437     11.65\n       438     11.79\n       439     11.94\n       440     12.09\n       441     12.23\n       442     12.38\n       443     12.53\n       444     12.68\n       445     12.83\n       446     12.98\n       447     13.13\n       448     13.29\n       449     13.44\n       450     13.60\n       451     13.75\n       452     13.91\n       453     14.06\n       454     14.22\n       455     14.38\n       456     14.54\n       457     14.69\n       458     14.85\n       459     15.02\n       460     15.18\n       461     15.34\n       462     15.50\n       463     15.66\n       464     15.83\n       465     15.99\n       466     16.16\n       467     16.33\n       468     16.49\n       469     16.66\n       470     16.83\n       471     17.00\n       472     17.17\n       473     17.34\n       474     17.51\n       475     17.68\n       476     17.85\n       477     18.03\n       478     18.20\n       479     18.38\n       480     18.55\n       481     18.73\n       482     18.90\n       483     19.08\n       484     19.26\n       485     19.44\n       486     19.62\n       487     19.80\n       488     19.98\n       489     20.16\n       490     20.34\n       491     20.53\n       492     20.71\n       493     20.89\n       494     21.08\n       495     21.26\n       496     21.45\n       497     21.64\n       498     21.83\n       499     22.01\n       500     22.20\n       501     22.39\n       502     22.58\n       503     22.77\n       504     22.97\n       505     23.16\n       506     23.35\n       507     23.54\n       508     23.74\n       509     23.93\n       510     24.13\n       511     24.32\n       512     24.52\n       513     24.72\n       514     24.92\n       515     25.12\n       516     25.32\n       517     25.52\n       518     25.72\n       519     25.92\n       520     26.12\n       521     26.32\n       522     26.53\n       523     26.73\n       524     26.94\n       525     27.14\n       526     27.35\n       527     27.55\n       528     27.76\n       529     27.97\n       530     28.18\n       531     28.39\n       532     28.60\n       533     28.81\n       534     29.02\n       535     29.23\n       536     29.44\n       537     29.65\n       538     29.87\n       539     30.08\n       540     30.30\n       541     30.51\n       542     30.73\n       543     30.95\n       544     31.16\n       545     31.38\n       546     31.60\n       547     31.82\n       548     32.04\n       549     32.26\n       550     32.48\n       551     32.70\n       552     32.93\n       553     33.15\n       554     33.37\n       555     33.60\n       556     33.82\n       557     34.05\n       558     34.27\n       559     34.50\n       560     34.73\n       561     34.96\n       562     35.18\n       563     35.41\n       564     35.64\n       565     35.87\n       566     36.11\n       567     36.34\n       568     36.57\n       569     36.80\n       570     37.04\n       571     37.27\n       572     37.50\n       573     37.74\n       574     37.98\n       575     38.21\n       576     38.45\n       577     38.69\n       578     38.93\n       579     39.17\n       580     39.41\n       581     39.65\n       582     39.89\n       583     40.13\n       584     40.37\n       585     40.61\n       586     40.86\n       587     41.10\n       588     41.34\n       589     41.59\n       590     41.83\n       591     42.08\n       592     42.33\n       593     42.58\n       594     42.82\n       595     43.07\n       596     43.32\n       597     43.57\n       598     43.82\n       599     44.07\n       600     44.32\n       601     44.58\n       602     44.83\n       603     45.08\n       604     45.34\n       605     45.59\n       606     45.85\n       607     46.10\n       608     46.36\n       609     46.62\n       610     46.87\n       611     47.13\n       612     47.39\n       613     47.65\n       614     47.91\n       615     48.17\n       616     48.43\n       617     48.69\n       618     48.95\n       619     49.22\n       620     49.48\n       621     49.74\n       622     50.01\n       623     50.27\n       624     50.54\n       625     50.81\n       626     51.07\n       627     51.34\n       628     51.61\n       629     51.88\n       630     52.15\n       631     52.41\n       632     52.69\n       633     52.96\n       634     53.23\n       635     53.50\n       636     53.77\n       637     54.05\n       638     54.32\n       639     54.59\n       640     54.87\n       641     55.14\n       642     55.42\n       643     55.70\n       644     55.97\n       645     56.25\n       646     56.53\n       647     56.81\n       648     57.09\n       649     57.37\n       650     57.65\n       651     57.93\n       652     58.21\n       653     58.49\n       654     58.78\n       655     59.06\n       656     59.34\n       657     59.63\n       658     59.91\n       659     60.20\n       660     60.48\n       661     60.77\n       662     61.06\n       663     61.35\n       664     61.63\n       665     61.92\n       666     62.21\n       667     62.50\n       668     62.79\n       669     63.09\n       670     63.38\n       671     63.67\n       672     63.96\n       673     64.26\n       674     64.55\n       675     64.84\n       676     65.14\n       677     65.43\n       678     65.73\n       679     66.03\n       680     66.33\n       681     66.62\n       682     66.92\n       683     67.22\n       684     67.52\n       685     67.82\n       686     68.12\n       687     68.42\n       688     68.72\n       689     69.03\n       690     69.33\n       691     69.63\n       692     69.94\n       693     70.24\n       694     70.55\n       695     70.85\n       696     71.16\n       697     71.46\n       698     71.77\n       699     72.08\n       700     72.39\n       701     72.70\n       702     73.00\n       703     73.31\n       704     73.63\n       705     73.94\n       706     74.25\n       707     74.56\n       708     74.87\n       709     75.19\n       710     75.50\n       711     75.81\n       712     76.13\n       713     76.44\n       714     76.76\n       715     77.08\n       716     77.39\n       717     77.71\n       718     78.03\n       719     78.35\n       720     78.67\n       721     78.99\n       722     79.31\n       723     79.63\n       724     79.95\n       725     80.27\n       726     80.59\n       727     80.91\n       728     81.24\n       729     81.56\n       730     81.89\n       731     82.21\n       732     82.54\n       733     82.86\n       734     83.19\n       735     83.52\n       736     83.84\n       737     84.17\n       738     84.50\n       739     84.83\n       740     85.16\n       741     85.49\n       742     85.82\n       743     86.15\n       744     86.48\n       745     86.82\n       746     87.15\n       747     87.48\n       748     87.82\n       749     88.15\n       750     88.49\n       751     88.82\n       752     89.16\n       753     89.49\n       754     89.83\n       755     90.17\n       756     90.51\n       757     90.85\n       758     91.18\n       759     91.52\n       760     91.86\n       761     92.21\n       762     92.55\n       763     92.89\n       764     93.23\n       765     93.57\n       766     93.92\n       767     94.26\n       768     94.61\n       769     94.95\n       770     95.30\n       771     95.64\n       772     95.99\n       773     96.34\n       774     96.68\n       775     97.03\n       776     97.38\n       777     97.73\n       778     98.08\n       779     98.43\n       780     98.78\n       781     99.13\n       782     99.48\n       783     99.83\n       784    100.19\n       785    100.54\n       786    100.89\n       787    101.25\n       788    101.60\n       789    101.96\n       790    102.31\n       791    102.67\n       792    103.03\n       793    103.38\n       794    103.74\n       795    104.10\n       796    104.46\n       797    104.82\n       798    105.18\n       799    105.54\n       800    105.90",
  "codigoPLU": "2143088",
  "codigoFLU": "58512030",
  "ANA": true
}