{
  "MCA": 10,
  "medidas": 48,
  "FatorNivelCorrigido": 9,
  "CurvaChave": "40      0.00\n        41      0.00\n        42      0.00\n        43      0.00\n        44      0.00\n        45      0.00\n        46      0.00\n        47      0.00\n        48      0.00\n        49      0.00\n        50      0.00\n        51      0.00\n        52      0.00\n        53      0.00\n        54      0.00\n        55      0.00\n        56      0.00\n        57      0.00\n        58      0.00\n        59      0.00\n        60      0.00\n        61      0.00\n        62      0.00\n        63      0.00\n        64      0.00\n        65      0.00\n        66      0.00\n        67      0.00\n        68      0.00\n        69      0.00\n        70      0.00\n        71      0.00\n        72      0.00\n        73      0.00\n        74      0.00\n        75      0.00\n        76      0.01\n        77      0.01\n        78      0.01\n        79      0.01\n        80      0.01\n        81      0.01\n        82      0.01\n        83      0.01\n        84      0.01\n        85      0.01\n        86      0.01\n        87      0.02\n        88      0.02\n        89      0.02\n        90      0.02\n        91      0.02\n        92      0.02\n        93      0.03\n        94      0.03\n        95      0.03\n        96      0.03\n        97      0.03\n        98      0.04\n        99      0.04\n       100      0.04\n       101      0.05\n       102      0.05\n       103      0.05\n       104      0.06\n       105      0.06\n       106      0.07\n       107      0.07\n       108      0.08\n       109      0.08\n       110      0.09\n       111      0.09\n       112      0.10\n       113      0.10\n       114      0.11\n       115      0.12\n       116      0.12\n       117      0.13\n       118      0.14\n       119      0.15\n       120      0.16\n       121      0.17\n       122      0.18\n       123      0.19\n       124      0.20\n       125      0.21\n       126      0.22\n       127      0.23\n       128      0.24\n       129      0.26\n       130      0.27\n       131      0.28\n       132      0.30\n       133      0.31\n       134      0.33\n       135      0.35\n       136      0.36\n       137      0.38\n       138      0.40\n       139      0.42\n       140      0.44\n       141      0.46\n       142      0.48\n       143      0.50\n       144      0.53\n       145      0.55\n       146      0.57\n       147      0.60\n       148      0.63\n       149      0.66\n       150      0.68\n       151      0.71\n       152      0.74\n       153      0.78\n       154      0.81\n       155      0.84\n       156      0.88\n       157      0.91\n       158      0.95\n       159      0.99\n       160      1.03\n       161      1.07\n       162      1.11\n       163      1.16\n       164      1.20\n       165      1.25\n       166      1.30\n       167      1.35\n       168      1.40\n       169      1.45\n       170      1.51\n       171      1.56\n       172      1.62\n       173      1.68\n       174      1.74\n       175      1.80\n       176      1.87\n       177      1.93\n       178      2.00\n       179      2.07\n       180      2.14\n       181      2.22\n       182      2.29\n       183      2.37\n       184      2.45\n       185      2.53\n       186      2.62\n       187      2.71\n       188      2.80\n       189      2.89\n       190      2.98\n       191      3.08\n       192      3.18\n       193      3.28\n       194      3.38\n       195      3.49\n       196      3.60\n       197      3.71\n       198      3.83\n       199      3.95\n       200      4.07\n       201      4.19\n       202      4.32\n       203      4.45\n       204      4.58\n       205      4.72\n       206      4.86\n       207      5.00\n       208      5.15\n       209      5.30\n       210      5.45\n       211      5.61\n       212      5.77\n       213      5.93\n       214      6.10\n       215      6.27\n       216      6.45\n       217      6.62\n       218      6.81\n       219      7.00\n       220      7.19\n       221      7.38\n       222      7.58\n       223      7.79\n       224      8.00\n       225      8.21\n       226      8.43\n       227      8.65\n       228      8.88\n       229      9.11\n       230      9.34\n       231      9.59\n       232      9.83\n       233     10.08\n       234     10.34\n       235     10.60\n       236     10.87\n       237     11.14\n       238     11.42\n       239     11.71\n       240     12.00\n       241     12.29\n       242     12.59\n       243     12.90\n       244     13.21\n       245     13.53\n       246     13.86\n       247     14.19\n       248     14.53\n       249     14.87\n       250     15.22\n       251     15.58\n       252     15.94\n       253     16.31\n       254     16.69\n       255     17.08\n       256     17.47\n       257     17.87\n       258     18.28\n       259     18.69\n       260     19.11\n       261     19.54\n       262     19.98\n       263     20.42\n       264     20.87\n       265     21.33\n       266     21.80\n       267     22.28\n       268     22.77\n       269     23.26\n       270     23.76\n       271     24.27\n       272     24.79\n       273     25.32\n       274     25.86\n       275     26.41\n       276     26.96\n       277     27.53\n       278     28.11\n       279     28.69\n       280     29.29\n       281     29.89\n       282     30.50\n       283     31.13\n       284     31.76\n       285     32.41\n       286     33.07\n       287     33.73\n       288     34.41\n       289     35.10\n       290     35.80\n       291     36.51\n       292     37.23\n       293     37.96\n       294     38.71\n       295     39.46\n       296     40.23\n       297     41.01\n       298     41.80\n       299     42.61\n       300     43.43\n       301     44.25\n       302     45.10\n       303     45.95\n       304     46.82\n       305     47.70\n       306     48.60\n       307     49.50\n       308     50.43\n       309     51.36\n       310     52.31\n       311     53.27\n       312     54.25\n       313     55.24\n       314     56.25\n       315     57.27\n       316     58.31\n       317     59.36\n       318     60.43\n       319     61.51\n       320     62.60\n       321     63.72\n       322     64.85\n       323     65.99\n       324     67.15\n       325     68.33\n       326     69.52\n       327     70.73\n       328     71.96\n       329     73.21\n       330     74.47\n       331     75.75\n       332     77.05\n       333     78.36\n       334     79.69\n       335     81.04\n       336     82.41\n       337     83.80\n       338     85.21\n       339     86.63\n       340     88.08\n       341     89.54\n       342     91.03\n       343     92.53\n       344     94.05\n       345     95.60\n       346     97.16\n       347     98.74\n       348    100.35\n       349    101.98\n       350    103.62\n       351    105.29\n       352    106.98\n       353    108.69\n       354    110.43\n       355    112.18\n       356    113.96\n       357    115.76\n       358    117.58\n       359    119.43\n       360    121.30\n       361    123.19\n       362    125.11\n       363    127.05\n       364    129.02\n       365    131.01\n       366    133.02\n       367    135.06\n       368    137.12\n       369    139.21\n       370    141.33\n       371    143.47\n       372    145.64\n       373    147.83\n       374    150.05\n       375    152.30\n       376    154.57\n       377    156.87\n       378    159.20\n       379    161.55\n       380    163.94\n       381    166.35\n       382    168.79\n       383    171.26\n       384    173.76\n       385    176.28\n       386    178.84\n       387    181.43\n       388    184.04\n       389    186.69\n       390    189.37\n       391    192.07\n       392    194.81\n       393    197.58\n       394    200.39\n       395    203.22\n       396    206.09\n       397    208.99\n       398    211.92\n       399    214.88\n       400    217.88\n       401    220.91\n       402    223.98\n       403    227.07\n       404    230.21\n       405    233.38\n       406    236.58\n       407    239.82\n       408    243.09\n       409    246.40\n       410    249.75\n       411    253.13\n       412    256.55\n       413    260.01\n       414    263.50\n       415    267.03\n       416    270.60\n       417    274.21\n       418    277.86\n       419    281.54\n       420    285.27\n       421    289.03\n       422    292.83\n       423    296.68\n       424    300.56\n       425    304.49\n       426    308.46\n       427    312.46\n       428    316.51\n       429    320.61\n       430    324.74\n       431    328.92\n       432    333.14\n       433    337.40\n       434    341.71\n       435    346.06\n       436    350.46\n       437    354.90\n       438    359.39\n       439    363.92\n       440    368.49\n       441    373.12\n       442    377.79\n       443    382.51\n       444    387.27\n       445    392.08\n       446    396.94\n       447    401.85\n       448    406.81\n       449    411.82\n       450    416.87\n       451    421.98\n       452    427.14\n       453    432.34\n       454    437.60\n       455    442.91\n       456    448.27\n       457    453.68\n       458    459.15\n       459    464.66\n       460    470.24\n       461    475.86\n       462    481.54\n       463    487.27\n       464    493.06\n       465    498.90\n       466    504.80\n       467    510.76\n       468    516.77\n       469    522.84\n       470    528.96\n       471    535.15\n       472    541.39\n       473    547.69\n       474    554.04\n       475    560.46\n       476    566.94\n       477    573.48\n       478    580.07\n       479    586.73\n       480    593.45\n       481    600.23\n       482    607.08\n       483    613.98\n       484    620.95\n       485    627.99\n       486    635.08\n       487    642.25\n       488    649.47\n       489    656.76\n       490    664.12\n       491    671.55\n       492    679.04\n       493    686.59\n       494    694.22\n       495    701.91\n       496    709.67\n       497    717.50\n       498    725.40\n       499    733.37\n       500    741.41\n       501    749.52\n       502    757.70\n       503    765.96\n       504    774.28\n       505    782.68\n       506    791.15\n       507    799.70\n       508    808.32\n       509    817.01\n       510    825.78\n       511    834.63\n       512    843.55\n       513    852.54\n       514    861.62\n       515    870.77\n       516    880.00\n       517    889.31\n       518    898.69\n       519    908.16\n       520    917.71\n       521    927.34\n       522    937.04\n       523    946.83\n       524    956.71\n       525    966.66\n       526    976.70\n       527    986.82\n       528    997.03\n       529   1007.32\n       530   1017.70\n       531   1028.16\n       532   1038.71\n       533   1049.34\n       534   1060.07\n       535   1070.88\n       536   1081.78\n       537   1092.76\n       538   1103.84\n       539   1115.01\n       540   1126.27\n       541   1137.62\n       542   1149.06\n       543   1160.60\n       544   1172.23\n       545   1183.95\n       546   1195.76\n       547   1207.67\n       548   1219.68\n       549   1231.78\n       550   1243.98\n       551   1256.27\n       552   1268.66\n       553   1281.15\n       554   1293.74\n       555   1306.43\n       556   1319.22\n       557   1332.11\n       558   1345.10\n       559   1358.19\n       560   1371.38\n       561   1384.68\n       562   1398.08\n       563   1411.59\n       564   1425.20\n       565   1438.91\n       566   1452.73\n       567   1466.66\n       568   1480.69\n       569   1494.84\n       570   1509.09\n       571   1523.45\n       572   1537.92\n       573   1552.50\n       574   1567.19\n       575   1581.99\n       576   1596.91\n       577   1611.94\n       578   1627.08\n       579   1642.33\n       580   1657.71\n       581   1673.19\n       582   1688.80\n       583   1704.51\n       584   1720.35\n       585   1736.31\n       586   1752.38\n       587   1768.58\n       588   1784.89\n       589   1801.32\n       590   1817.88\n       591   1834.56\n       592   1851.36\n       593   1868.29\n       594   1885.34\n       595   1902.51\n       596   1919.81\n       597   1937.24\n       598   1954.79\n       599   1972.47\n       600   1990.28\n       601   2008.22\n       602   2026.29\n       603   2044.49\n       604   2062.82\n       605   2081.28\n       606   2099.88\n       607   2118.60\n       608   2137.47\n       609   2156.46\n       610   2175.60\n       611   2194.87\n       612   2214.28\n       613   2233.82\n       614   2253.50\n       615   2273.33\n       616   2293.29\n       617   2313.39\n       618   2333.64\n       619   2354.02\n       620   2374.56\n       621   2395.23\n       622   2416.05\n       623   2437.01\n       624   2458.12\n       625   2479.38\n       626   2500.79\n       627   2522.34\n       628   2544.04\n       629   2565.89\n       630   2587.90\n       631   2610.05\n       632   2632.36\n       633   2654.82\n       634   2677.43\n       635   2700.20\n       636   2723.13\n       637   2746.21\n       638   2769.45\n       639   2792.84\n       640   2816.40\n       641   2840.11\n       642   2863.99\n       643   2888.03\n       644   2912.22\n       645   2936.58\n       646   2961.11\n       647   2985.80\n       648   3010.65\n       649   3035.67\n       650   3060.86\n       651   3086.22\n       652   3111.74\n       653   3137.44\n       654   3163.30\n       655   3189.34\n       656   3215.55\n       657   3241.93\n       658   3268.48\n       659   3295.21\n       660   3322.12\n       661   3349.20\n       662   3376.46\n       663   3403.90\n       664   3431.51\n       665   3459.31\n       666   3487.29\n       667   3515.45\n       668   3543.79\n       669   3572.31\n       670   3601.02\n       671   3629.92\n       672   3659.00\n       673   3688.27\n       674   3717.73\n       675   3747.37\n       676   3777.21\n       677   3807.24\n       678   3837.45\n       679   3867.87\n       680   3898.47\n       681   3929.27\n       682   3960.26\n       683   3991.46\n       684   4022.84\n       685   4054.43\n       686   4086.22\n       687   4118.20\n       688   4150.39\n       689   4182.78\n       690   4215.37\n       691   4248.17\n       692   4281.17\n       693   4314.38\n       694   4347.80\n       695   4381.42\n       696   4415.25\n       697   4449.29\n       698   4483.54\n       699   4518.01\n       700   4552.69\n       701   4587.58\n       702   4622.68\n       703   4658.00\n       704   4693.54\n       705   4729.30\n       706   4765.27\n       707   4801.47\n       708   4837.89\n       709   4874.52\n       710   4911.38\n       711   4948.47\n       712   4985.78\n       713   5023.31\n       714   5061.08\n       715   5099.07\n       716   5137.29\n       717   5175.74\n       718   5214.42\n       719   5253.33\n       720   5292.48\n       721   5331.86\n       722   5371.48\n       723   5411.33\n       724   5451.42\n       725   5491.75\n       726   5532.32\n       727   5573.13\n       728   5614.18\n       729   5655.48\n       730   5697.02\n       731   5738.80\n       732   5780.83\n       733   5823.11\n       734   5865.64\n       735   5908.41\n       736   5951.44\n       737   5994.72\n       738   6038.25\n       739   6082.03\n       740   6126.07\n       741   6170.37\n       742   6214.92\n       743   6259.74\n       744   6304.81\n       745   6350.14\n       746   6395.74\n       747   6441.59\n       748   6487.72\n       749   6534.10\n       750   6580.76\n       751   6627.68\n       752   6674.87\n       753   6722.33\n       754   6770.06\n       755   6818.06\n       756   6866.34\n       757   6914.89\n       758   6963.72\n       759   7012.83\n       760   7062.21\n       761   7111.87\n       762   7161.81\n       763   7212.04\n       764   7262.55\n       765   7313.34\n       766   7364.42\n       767   7415.78\n       768   7467.43\n       769   7519.37\n       770   7571.61\n       771   7624.13\n       772   7676.94\n       773   7730.05\n       774   7783.46\n       775   7837.16\n       776   7891.16\n       777   7945.46\n       778   8000.06\n       779   8054.96\n       780   8110.16\n       781   8165.67\n       782   8221.48\n       783   8277.60\n       784   8334.02\n       785   8390.76\n       786   8447.80\n       787   8505.16\n       788   8562.83\n       789   8620.82\n       790   8679.12\n       791   8737.73\n       792   8796.67\n       793   8855.92\n       794   8915.50\n       795   8975.40\n       796   9035.62\n       797   9096.16\n       798   9157.04\n       799   9218.23\n      800   9279.76 ",
  "codigoPLU": "1239047",
  "codigoFLU": "51460050",
  "ANA": true
}