{
  "MCA": 10,
  "medidas": 96,
  "FatorNivelCorrigido": 367,
  "CurvaChave": " 374      0.00\n       375      0.00\n\n       376      0.01\n\n       377      0.03\n\n       378      0.04\n\n       379      0.07\n\n       380      0.09\n\n       381      0.12\n\n       382      0.15\n\n       383      0.19\n\n       384      0.23\n\n       385      0.27\n\n       386      0.31\n\n       387      0.36\n\n       388      0.41\n\n       389      0.46\n\n       390      0.52\n\n       391      0.58\n\n       392      0.64\n\n       393      0.70\n\n       394      0.77\n\n       395      0.84\n\n       396      0.91\n\n       397      0.99\n\n       398      1.07\n\n       399      1.15\n\n       400      1.23\n\n       401      1.32\n\n       402      1.40\n\n       403      1.49\n\n       404      1.59\n\n       405      1.68\n\n       406      1.78\n\n       407      1.88\n\n       408      1.98\n\n       409      2.09\n\n       410      2.19\n\n       411      2.30\n\n       412      2.41\n\n       413      2.53\n\n       414      2.64\n\n       415      2.76\n\n       416      2.88\n\n       417      3.01\n\n       418      3.13\n\n       419      3.26\n\n       420      3.39\n\n       421      3.52\n\n       422      3.65\n\n       423      3.79\n\n       424      3.93\n\n       425      4.07\n\n       426      4.21\n\n       427      4.36\n\n       428      4.50\n\n       429      4.65\n\n       430      4.80\n\n       431      4.96\n\n       432      5.11\n\n       433      5.27\n\n       434      5.43\n\n       435      5.59\n\n       436      5.76\n\n       437      5.92\n\n       438      6.09\n\n       439      6.26\n\n       440      6.43\n\n       441      6.61\n\n       442      6.78\n\n       443      6.96\n\n       444      7.14\n\n       445      7.32\n\n       446      7.51\n\n       447      7.69\n\n       448      7.88\n\n       449      8.07\n\n       450      8.26\n\n       451      8.46\n\n       452      8.65\n\n       453      8.85\n\n       454      9.05\n\n       455      9.25\n\n       456      9.46\n\n       457      9.66\n\n       458      9.87\n\n       459     10.08\n\n       460     10.29\n\n       461     10.51\n\n       462     10.72\n\n       463     10.94\n\n       464     11.16\n\n       465     11.38\n\n       466     11.60\n\n       467     11.83\n\n       468     12.06\n\n       469     12.28\n\n       470     12.51\n\n       471     12.75\n\n       472     12.98\n\n       473     13.22\n\n       474     13.46\n\n       475     13.70\n\n       476     13.94\n\n       477     14.18\n\n       478     14.43\n\n       479     14.67\n\n       480     14.92\n\n       481     15.17\n\n       482     15.43\n\n       483     15.68\n\n       484     15.94\n\n       485     16.20\n\n       486     16.46\n\n       487     16.72\n\n       488     16.98\n\n       489     17.25\n\n       490     17.51\n\n       491     17.78\n\n       492     18.05\n\n       493     18.33\n\n       494     18.60\n\n       495     18.88\n\n       496     19.15\n\n       497     19.43\n\n       498     19.72\n\n       499     20.00\n\n       500     20.28\n\n       501     20.57\n\n       502     20.86\n\n       503     21.15\n\n       504     21.44\n\n       505     21.74\n\n       506     22.03\n\n       507     22.33\n\n       508     22.63\n\n       509     22.93\n\n       510     23.23\n\n       511     23.54\n\n       512     23.84\n\n       513     24.15\n\n       514     24.46\n\n       515     24.77\n\n       516     25.08\n\n       517     25.40\n\n       518     25.71\n\n       519     26.03\n\n       520     26.35\n\n       521     26.67\n\n       522     27.00\n\n       523     27.32\n\n       524     27.65\n\n       525     27.97\n\n       526     28.30\n\n       527     28.64\n\n       528     28.97\n\n       529     29.30\n\n       530     29.64\n\n       531     29.98\n\n       532     30.32\n\n       533     30.66\n\n       534     31.00\n\n       535     31.35\n\n       536     31.70\n\n       537     32.04\n\n       538     32.39\n\n       539     32.75\n\n       540     33.10\n\n       541     33.45\n\n       542     33.81\n\n       543     34.17\n\n       544     34.53\n\n       545     34.89\n\n       546     35.25\n\n       547     35.62\n\n       548     35.98\n\n       549     36.35\n\n       550     36.72\n\n       551     37.09\n\n       552     37.47\n\n       553     37.84\n\n       554     38.22\n\n       555     38.60\n\n       556     38.98\n\n       557     39.36\n\n       558     39.74\n\n       559     40.12\n\n       560     40.51\n\n       561     40.90\n\n       562     41.29\n\n       563     41.68\n\n       564     42.07\n\n       565     42.46\n\n       566     42.86\n\n       567     43.26\n\n       568     43.66\n\n       569     44.06\n\n       570     44.46\n\n       571     44.86\n\n       572     45.27\n\n       573     45.67\n\n       574     46.08\n\n       575     46.49\n\n       576     46.90\n\n       577     47.32\n\n       578     47.73\n\n       579     48.15\n\n       580     48.57\n\n       581     48.99\n\n       582     49.41\n\n       583     49.83\n\n       584     50.25\n\n       585     50.68\n\n       586     51.11\n\n       587     51.54\n\n       588     51.97\n\n       589     52.40\n\n       590     52.83\n\n       591     53.27\n\n       592     53.70\n\n       593     54.14\n\n       594     54.58\n\n       595     55.02\n\n       596     55.47\n\n       597     55.91\n\n       598     56.36\n\n       599     56.80\n\n       600     57.25\n\n       601     57.70\n\n       602     58.16\n\n       603     58.61\n\n       604     59.07\n\n       605     59.52\n\n       606     59.98\n\n       607     60.44\n\n       608     60.90\n\n       609     61.36\n\n       610     61.83\n\n       611     62.30\n\n       612     62.76\n\n       613     63.23\n\n       614     63.70\n\n       615     64.17\n\n       616     64.65\n\n       617     65.12\n\n       618     65.60\n\n       619     66.08\n\n       620     66.56\n\n       621     67.04\n\n       622     67.52\n\n       623     68.01\n\n       624     68.49\n\n       625     68.98\n\n       626     69.47\n\n       627     69.96\n\n       628     70.45\n\n       629     70.94\n\n       630     71.44\n\n       631     71.94\n\n       632     72.43\n\n       633     72.93\n\n       634     73.43\n\n       635     73.94\n\n       636     74.44\n\n       637     74.95\n\n       638     75.45\n\n       639     75.96\n\n       640     76.47\n\n       641     76.98\n\n       642     77.49\n\n       643     78.01\n\n       644     78.52\n\n       645     79.04\n\n       646     79.56\n\n       647     80.08\n\n       648     80.60\n\n       649     81.13\n\n       650     81.65",
  "codigoPLU": "2347210",
  "codigoFLU": "62512092",
  "ANA": true
}