{
  "MCA": 10,
  "medidas": 48,
  "FatorNivelCorrigido": 212,
  "CurvaChave": "  0      0.02\n         1      0.03\n\n         2      0.03\n\n         3      0.03\n\n         4      0.03\n\n         5      0.03\n\n         6      0.03\n\n         7      0.03\n\n         8      0.03\n\n         9      0.03\n\n        10      0.04\n\n        11      0.04\n\n        12      0.04\n\n        13      0.04\n\n        14      0.04\n\n        15      0.04\n\n        16      0.04\n\n        17      0.05\n\n        18      0.05\n\n        19      0.05\n\n        20      0.05\n\n        21      0.05\n\n        22      0.06\n\n        23      0.06\n\n        24      0.06\n\n        25      0.06\n\n        26      0.06\n\n        27      0.07\n\n        28      0.07\n\n        29      0.07\n\n        30      0.07\n\n        31      0.08\n\n        32      0.08\n\n        33      0.08\n\n        34      0.08\n\n        35      0.09\n\n        36      0.09\n\n        37      0.09\n\n        38      0.09\n\n        39      0.10\n\n        40      0.10\n\n        41      0.10\n\n        42      0.11\n\n        43      0.11\n\n        44      0.12\n\n        45      0.12\n\n        46      0.12\n\n        47      0.13\n\n        48      0.13\n\n        49      0.13\n\n        50      0.14\n\n        51      0.14\n\n        52      0.15\n\n        53      0.15\n\n        54      0.16\n\n        55      0.16\n\n        56      0.17\n\n        57      0.17\n\n        58      0.18\n\n        59      0.18\n\n        60      0.19\n\n        61      0.19\n\n        62      0.20\n\n        63      0.21\n\n        64      0.21\n\n        65      0.22\n\n        66      0.22\n\n        67      0.23\n\n        68      0.24\n\n        69      0.25\n\n        70      0.25\n\n        71      0.26\n\n        72      0.27\n\n        73      0.27\n\n        74      0.28\n\n        75      0.29\n\n        76      0.30\n\n        77      0.31\n\n        78      0.32\n\n        79      0.32\n\n        80      0.33\n\n        81      0.34\n\n        82      0.35\n\n        83      0.36\n\n        84      0.37\n\n        85      0.38\n\n        86      0.39\n\n        87      0.40\n\n        88      0.41\n\n        89      0.43\n\n        90      0.44\n\n        91      0.45\n\n        92      0.46\n\n        93      0.47\n\n        94      0.48\n\n        95      0.50\n\n        96      0.51\n\n        97      0.52\n\n        98      0.54\n\n        99      0.55\n\n       100      0.57\n\n       101      0.58\n\n       102      0.59\n\n       103      0.61\n\n       104      0.63\n\n       105      0.64\n\n       106      0.66\n\n       107      0.67\n\n       108      0.69\n\n       109      0.71\n\n       110      0.73\n\n       111      0.74\n\n       112      0.76\n\n       113      0.78\n\n       114      0.80\n\n       115      0.82\n\n       116      0.84\n\n       117      0.86\n\n       118      0.88\n\n       119      0.90\n\n       120      0.92\n\n       121      0.94\n\n       122      0.97\n\n       123      0.99\n\n       124      1.01\n\n       125      1.04\n\n       126      1.06\n\n       127      1.09\n\n       128      1.11\n\n       129      1.14\n\n       130      1.16\n\n       131      1.19\n\n       132      1.22\n\n       133      1.25\n\n       134      1.28\n\n       135      1.30\n\n       136      1.33\n\n       137      1.36\n\n       138      1.40\n\n       139      1.43\n\n       140      1.46\n\n       141      1.49\n\n       142      1.52\n\n       143      1.56\n\n       144      1.59\n\n       145      1.63\n\n       146      1.66\n\n       147      1.70\n\n       148      1.74\n\n       149      1.78\n\n       150      1.81\n\n       151      1.85\n\n       152      1.89\n\n       153      1.93\n\n       154      1.98\n\n       155      2.02\n\n       156      2.06\n\n       157      2.11\n\n       158      2.15\n\n       159      2.20\n\n       160      2.24\n\n       161      2.29\n\n       162      2.34\n\n       163      2.39\n\n       164      2.44\n\n       165      2.49\n\n       166      2.54\n\n       167      2.59\n\n       168      2.64\n\n       169      2.70\n\n       170      2.75\n\n       171      2.81\n\n       172      2.87\n\n       173      2.92\n\n       174      2.98\n\n       175      3.04\n\n       176      3.10\n\n       177      3.17\n\n       178      3.23\n\n       179      3.29\n\n       180      3.36\n\n       181      3.43\n\n       182      3.49\n\n       183      3.56\n\n       184      3.63\n\n       185      3.70\n\n       186      3.78\n\n       187      3.85\n\n       188      3.92\n\n       189      4.00\n\n       190      4.08\n\n       191      4.16\n\n       192      4.24\n\n       193      4.32\n\n       194      4.40\n\n       195      4.48\n\n       196      4.57\n\n       197      4.66\n\n       198      4.74\n\n       199      4.83\n\n       200      4.92\n\n       201      5.02\n\n       202      5.11\n\n       203      5.21\n\n       204      5.30\n\n       205      5.40\n\n       206      5.50\n\n       207      5.60\n\n       208      5.71\n\n       209      5.81\n\n       210      5.92\n\n       211      6.03\n\n       212      6.14\n\n       213      6.25\n\n       214      6.36\n\n       215      6.47\n\n       216      6.59\n\n       217      6.71\n\n       218      6.83\n\n       219      6.95\n\n       220      7.08\n\n       221      7.20\n\n       222      7.33\n\n       223      7.46\n\n       224      7.59\n\n       225      7.73\n\n       226      7.86\n\n       227      8.00\n\n       228      8.14\n\n       229      8.28\n\n       230      8.42\n\n       231      8.57\n\n       232      8.72\n\n       233      8.87\n\n       234      9.02\n\n       235      9.18\n\n       236      9.34\n\n       237      9.49\n\n       238      9.66\n\n       239      9.82\n\n       240      9.99\n\n       241     10.16\n\n       242     10.33\n\n       243     10.50\n\n       244     10.68\n\n       245     10.86\n\n       246     11.04\n\n       247     11.22\n\n       248     11.41\n\n       249     11.60\n\n       250     11.79\n\n       251     11.99\n\n       252     12.18\n\n       253     12.39\n\n       254     12.59\n\n       255     12.79\n\n       256     13.00\n\n       257     13.22\n\n       258     13.43\n\n       259     13.65\n\n       260     13.87\n\n       261     14.09\n\n       262     14.32\n\n       263     14.55\n\n       264     14.78\n\n       265     15.02\n\n       266     15.26\n\n       267     15.50\n\n       268     15.75\n\n       269     16.00\n\n       270     16.25\n\n       271     16.51\n\n       272     16.77\n\n       273     17.03\n\n       274     17.30\n\n       275     17.57\n\n       276     17.84\n\n       277     18.12\n\n       278     18.40\n\n       279     18.69\n\n       280     18.98\n\n       281     19.27\n\n       282     19.57\n\n       283     19.87\n\n       284     20.17\n\n       285     20.48\n\n       286     20.79\n\n       287     21.11\n\n       288     21.43\n\n       289     21.75\n\n       290     22.08\n\n       291     22.42\n\n       292     22.76\n\n       293     23.10\n\n       294     23.44\n\n       295     23.79\n\n       296     24.15\n\n       297     24.51\n\n       298     24.87\n\n       299     25.24\n\n       300     25.62\n\n       301     26.00\n\n       302     26.38\n\n       303     26.77\n\n       304     27.16\n\n       305     27.56\n\n       306     27.96\n\n       307     28.37\n\n       308     28.78\n\n       309     29.20\n\n       310     29.62\n\n       311     30.05\n\n       312     30.49\n\n       313     30.93\n\n       314     31.37\n\n       315     31.82\n\n       316     32.28\n\n       317     32.74\n\n       318     33.20\n\n       319     33.68\n\n       320     34.15\n\n       321     34.64\n\n       322     35.13\n\n       323     35.62\n\n       324     36.13\n\n       325     36.63\n\n       326     37.15\n\n       327     37.67\n\n       328     38.20\n\n       329     38.73\n\n       330     39.27\n\n       331     39.81\n\n       332     40.36\n\n       333     40.92\n\n       334     41.49\n\n       335     42.06\n\n       336     42.64\n\n       337     43.22\n\n       338     43.82\n\n       339     44.42\n\n       340     45.02\n\n       341     45.63\n\n       342     46.25\n\n       343     46.88\n\n       344     47.52\n\n       345     48.16\n\n       346     48.81\n\n       347     49.47\n\n       348     50.13\n\n       349     50.80\n\n       350     51.48\n\n       351     52.17\n\n       352     52.87\n\n       353     53.57\n\n       354     54.28\n\n       355     55.00\n\n       356     55.73\n\n       357     56.47\n\n       358     57.21\n\n       359     57.96\n\n       360     58.72\n\n       361     59.49\n\n       362     60.27\n\n       363     61.06\n\n       364     61.85\n\n       365     62.66\n\n       366     63.47\n\n       367     64.30\n\n       368     65.13\n\n       369     65.97\n\n       370     66.82\n\n       371     67.68\n\n       372     68.55\n\n       373     69.43\n\n       374     70.31\n\n       375     71.21\n\n       376     72.12\n\n       377     73.04\n\n       378     73.97\n\n       379     74.90\n\n       380     75.85\n\n       381     76.81\n\n       382     77.78\n\n       383     78.76\n\n       384     79.75\n\n       385     80.75\n\n       386     81.76\n\n       387     82.78\n\n       388     83.81\n\n       389     84.85\n\n       390     85.91\n\n       391     86.98\n\n       392     88.05\n\n       393     89.14\n\n       394     90.24\n\n       395     91.35\n\n       396     92.48\n\n       397     93.61\n\n       398     94.76\n\n       399     95.92\n\n       400     97.09\n\n       401     98.27\n\n       402     99.47\n\n       403    100.68\n\n       404    101.90\n\n       405    103.13\n\n       406    104.38\n\n       407    105.64\n\n       408    106.91\n\n       409    108.19\n\n       410    109.49\n\n       411    110.80\n\n       412    112.13\n\n       413    113.47\n\n       414    114.82\n\n       415    116.19\n\n       416    117.57\n\n       417    118.96\n\n       418    120.37\n\n       419    121.79\n\n       420    123.23\n\n       421    124.68\n\n       422    126.15\n\n       423    127.63\n\n       424    129.12\n\n       425    130.63\n\n       426    132.16\n\n       427    133.70\n\n       428    135.26\n\n       429    136.83\n\n       430    138.42\n\n       431    140.02\n\n       432    141.64\n\n       433    143.27\n\n       434    144.92\n\n       435    146.59\n\n       436    148.28\n\n       437    149.98\n\n       438    151.69\n\n       439    153.43\n\n       440    155.18\n\n       441    156.95\n\n       442    158.73\n\n       443    160.53\n\n       444    162.35\n\n       445    164.19\n\n       446    166.05\n\n       447    167.92\n\n       448    169.81\n\n       449    171.72\n\n       450    173.65\n\n       451    175.59\n\n       452    177.56\n\n       453    179.54\n\n       454    181.55\n\n       455    183.57\n\n       456    185.61\n\n       457    187.67\n\n       458    189.75\n\n       459    191.85\n\n       460    193.97\n\n       461    196.11\n\n       462    198.27\n\n       463    200.45\n\n       464    202.65\n\n       465    204.87\n\n       466    207.12\n\n       467    209.38\n\n       468    211.66\n\n       469    213.97\n\n       470    216.30\n\n       471    218.65\n\n       472    221.02\n\n       473    223.41\n\n       474    225.82\n\n       475    228.26\n\n       476    230.72\n\n       477    233.20\n\n       478    235.71\n\n       479    238.24\n\n       480    240.79\n\n       481    243.36\n\n       482    245.96\n\n       483    248.58\n\n       484    251.23\n\n       485    253.90\n\n       486    256.59\n\n       487    259.31\n\n       488    262.05\n\n       489    264.82\n\n       490    267.62\n\n       491    270.43\n\n       492    273.28\n\n       493    276.15\n\n       494    279.04\n\n       495    281.96\n\n       496    284.91\n\n       497    287.88\n\n       498    290.88\n\n       499    293.91\n\n       500    296.97\n\n       501    300.05\n\n       502    303.15\n\n       503    306.29\n\n       504    309.45\n\n       505    312.64\n\n       506    315.86\n\n       507    319.11\n\n       508    322.39\n\n       509    325.69\n\n       510    329.03\n\n       511    332.39\n\n       512    335.78\n\n       513    339.21\n\n       514    342.66\n\n       515    346.14\n\n       516    349.65\n\n       517    353.20\n\n       518    356.77\n\n       519    360.38\n\n       520    364.01\n\n       521    367.68\n\n       522    371.38\n\n       523    375.11\n\n       524    378.87\n\n       525    382.67\n\n       526    386.49\n\n       527    390.35\n\n       528    394.25\n\n       529    398.17\n\n       530    402.13\n\n       531    406.13\n\n       532    410.15\n\n       533    414.22\n\n       534    418.31\n\n       535    422.44\n\n       536    426.61\n\n       537    430.81\n\n       538    435.04\n\n       539    439.32\n\n       540    443.62\n\n       541    447.97\n\n       542    452.35\n\n       543    456.76\n\n       544    461.22\n\n       545    465.71\n\n       546    470.24\n\n       547    474.80\n\n       548    479.41\n\n       549    484.05\n\n       550    488.73\n\n       551    493.45\n\n       552    498.20\n\n       553    503.00\n\n       554    507.84\n\n       555    512.71\n\n       556    517.63\n\n       557    522.59\n\n       558    527.58\n\n       559    532.62\n\n       560    537.70\n\n       561    542.82\n\n       562    547.99\n\n       563    553.19\n\n       564    558.44\n\n       565    563.73\n\n       566    569.06\n\n       567    574.43\n\n       568    579.85\n\n       569    585.31\n\n       570    590.82\n\n       571    596.37\n\n       572    601.97\n\n       573    607.61\n\n       574    613.29\n\n       575    619.02\n\n       576    624.80\n\n       577    630.62\n\n       578    636.49\n\n       579    642.41\n\n       580    648.37\n\n       581    654.38\n\n       582    660.44\n\n       583    666.55\n\n       584    672.70\n\n       585    678.90\n\n       586    685.16\n\n       587    691.46\n\n       588    697.81\n\n       589    704.21\n\n       590    710.66\n\n       591    717.16\n\n       592    723.71\n\n       593    730.32\n\n       594    736.97\n\n       595    743.68\n\n       596    750.44\n\n       597    757.25\n\n       598    764.11\n\n       599    771.03\n\n       600    778.00\n\n       601    785.03\n\n       602    792.11\n\n       603    799.24\n\n       604    806.43\n\n       605    813.67\n\n       606    820.97\n\n       607    828.33\n\n       608    835.74\n\n       609    843.21\n\n       610    850.74\n\n       611    858.32\n\n       612    865.96\n\n       613    873.66\n\n       614    881.42\n\n       615    889.23\n\n       616    897.11\n\n       617    905.05\n\n       618    913.04\n\n       619    921.10\n\n       620    929.22\n\n       621    937.40\n\n       622    945.64\n\n       623    953.94\n\n       624    962.30\n\n       625    970.73\n\n       626    979.22\n\n       627    987.77\n\n       628    996.39\n\n       629   1005.07\n\n       630   1013.82\n\n       631   1022.63\n\n       632   1031.51\n\n       633   1040.45\n\n       634   1049.46\n\n       635   1058.54\n\n       636   1067.68\n\n       637   1076.89\n\n       638   1086.17\n\n       639   1095.52\n\n       640   1104.93\n\n       641   1114.42\n\n       642   1123.97\n\n       643   1133.60\n\n       644   1143.29\n\n       645   1153.06\n\n       646   1162.90\n\n       647   1172.81\n\n       648   1182.79\n\n       649   1192.84\n\n       650   1202.97\n\n       651   1213.17\n\n       652   1223.45\n\n       653   1233.80\n\n       654   1244.22\n\n       655   1254.72\n\n       656   1265.30\n\n       657   1275.95\n\n       658   1286.68\n\n       659   1297.49\n\n       660   1308.37\n\n       661   1319.33\n\n       662   1330.37\n\n       663   1341.49\n\n       664   1352.69\n\n       665   1363.97\n\n       666   1375.33\n\n       667   1386.77\n\n       668   1398.29\n\n       669   1409.89\n\n       670   1421.58\n\n       671   1433.34\n\n       672   1445.20\n\n       673   1457.13\n\n       674   1469.15\n\n       675   1481.26\n\n       676   1493.45\n\n       677   1505.72\n\n       678   1518.08\n\n       679   1530.53\n\n       680   1543.07\n\n       681   1555.69\n\n       682   1568.41\n\n       683   1581.21\n\n       684   1594.10\n\n       685   1607.08\n\n       686   1620.15\n\n       687   1633.31\n\n       688   1646.57\n\n       689   1659.91\n\n       690   1673.35\n\n       691   1686.88\n\n       692   1700.51\n\n       693   1714.22\n\n       694   1728.04\n\n       695   1741.95\n\n       696   1755.95\n\n       697   1770.05\n\n       698   1784.25\n\n       699   1798.54\n\n       700   1812.94\n\n       701   1827.43\n\n       702   1842.02\n\n       703   1856.71\n\n       704   1871.50\n\n       705   1886.39\n\n       706   1901.38\n\n       707   1916.48\n\n       708   1931.68\n\n       709   1946.98\n\n       710   1962.38\n\n       711   1977.89\n\n       712   1993.50\n\n       713   2009.22\n\n       714   2025.05\n\n       715   2040.98\n\n       716   2057.01\n\n       717   2073.16\n\n       718   2089.42\n\n       719   2105.78\n\n       720   2122.25\n\n       721   2138.84\n\n       722   2155.53\n\n       723   2172.34\n\n       724   2189.25\n\n       725   2206.28\n\n       726   2223.43\n\n       727   2240.69\n\n       728   2258.06\n\n       729   2275.55\n\n       730   2293.15\n\n       731   2310.87\n\n       732   2328.71\n\n       733   2346.66\n\n       734   2364.74\n\n       735   2382.93\n\n       736   2401.24\n\n       737   2419.67\n\n       738   2438.23\n\n       739   2456.90\n\n       740   2475.70\n\n       741   2494.62\n\n       742   2513.67\n\n       743   2532.84\n\n       744   2552.13\n\n       745   2571.55\n\n       746   2591.10\n\n       747   2610.77\n\n       748   2630.57\n\n       749   2650.50\n\n       750   2670.56\n\n       751   2690.75\n\n       752   2711.07\n\n       753   2731.52\n\n       754   2752.10\n\n       755   2772.81\n\n       756   2793.66\n\n       757   2814.64\n\n       758   2835.76\n\n       759   2857.01\n\n       760   2878.40\n\n       761   2899.93\n\n       762   2921.59\n\n       763   2943.40\n\n       764   2965.34\n\n       765   2987.42\n\n       766   3009.64\n\n       767   3032.00\n\n       768   3054.51\n\n       769   3077.16\n\n       770   3099.95\n\n       771   3122.89\n\n       772   3145.97\n\n       773   3169.20\n\n       774   3192.57\n\n       775   3216.10\n\n       776   3239.77\n\n       777   3263.58\n\n       778   3287.55\n\n       779   3311.67\n\n       780   3335.95\n\n       781   3360.37\n\n       782   3384.95\n\n       783   3409.68\n\n       784   3434.56\n\n       785   3459.60\n\n       786   3484.80\n\n       787   3510.15\n\n       788   3535.66\n\n       789   3561.33\n\n       790   3587.16\n\n       791   3613.15\n\n       792   3639.30\n\n       793   3665.61\n\n       794   3692.09\n\n       795   3718.73\n\n       796   3745.53\n\n       797   3772.50\n\n       798   3799.63\n\n       799   3826.94\n\n       800   3854.41\n\n",
  "codigoPLU": "2349078",
  "codigoFLU": "64219200",
  "ANA": true
}