{
  "MCA": 10,
  "medidas": 48,
  "FatorNivelCorrigido": 50,
  "CurvaChave": "        57      0.00\n\n        58      0.00\n\n        59      0.00\n\n        60      0.01\n\n        61      0.01\n\n        62      0.02\n\n        63      0.03\n\n        64      0.04\n\n        65      0.05\n\n        66      0.06\n\n        67      0.07\n\n        68      0.08\n\n        69      0.09\n\n        70      0.11\n\n        71      0.12\n\n        72      0.14\n\n        73      0.16\n\n        74      0.17\n\n        75      0.19\n\n        76      0.21\n\n        77      0.23\n\n        78      0.25\n\n        79      0.28\n\n        80      0.30\n\n        81      0.32\n\n        82      0.35\n\n        83      0.37\n\n        84      0.40\n\n        85      0.42\n\n        86      0.45\n\n        87      0.48\n\n        88      0.51\n\n        89      0.54\n\n        90      0.57\n\n        91      0.60\n\n        92      0.63\n\n        93      0.66\n\n        94      0.70\n\n        95      0.73\n\n        96      0.77\n\n        97      0.80\n\n        98      0.84\n\n        99      0.87\n\n       100      0.91\n\n       101      0.95\n\n       102      0.99\n\n       103      1.03\n\n       104      1.07\n\n       105      1.11\n\n       106      1.15\n\n       107      1.19\n\n       108      1.24\n\n       109      1.28\n\n       110      1.32\n\n       111      1.37\n\n       112      1.41\n\n       113      1.46\n\n       114      1.51\n\n       115      1.55\n\n       116      1.60\n\n       117      1.65\n\n       118      1.70\n\n       119      1.75\n\n       120      1.80\n\n       121      1.85\n\n       122      1.90\n\n       123      1.96\n\n       124      2.01\n\n       125      2.06\n\n       126      2.12\n\n       127      2.17\n\n       128      2.23\n\n       129      2.28\n\n       130      2.34\n\n       131      2.40\n\n       132      2.46\n\n       133      2.51\n\n       134      2.57\n\n       135      2.63\n\n       136      2.69\n\n       137      2.75\n\n       138      2.82\n\n       139      2.88\n\n       140      2.94\n\n       141      3.00\n\n       142      3.07\n\n       143      3.13\n\n       144      3.20\n\n       145      3.26\n\n       146      3.33\n\n       147      3.40\n\n       148      3.47\n\n       149      3.53\n\n       150      3.60\n\n       151      3.67\n\n       152      3.74\n\n       153      3.81\n\n       154      3.88\n\n       155      3.95\n\n       156      4.03\n\n       157      4.10\n\n       158      4.17\n\n       159      4.25\n\n       160      4.32\n\n       161      4.40\n\n       162      4.47\n\n       163      4.55\n\n       164      4.62\n\n       165      4.70\n\n       166      4.78\n\n       167      4.86\n\n       168      4.94\n\n       169      5.02\n\n       170      5.10\n\n       171      5.18\n\n       172      5.26\n\n       173      5.34\n\n       174      5.42\n\n       175      5.50\n\n       176      5.59\n\n       177      5.67\n\n       178      5.76\n\n       179      5.84\n\n       180      5.93\n\n       181      6.01\n\n       182      6.10\n\n       183      6.21\n\n       184      6.33\n\n       185      6.44\n\n       186      6.56\n\n       187      6.68\n\n       188      6.80\n\n       189      6.92\n\n       190      7.04\n\n       191      7.16\n\n       192      7.28\n\n       193      7.41\n\n       194      7.53\n\n       195      7.66\n\n       196      7.78\n\n       197      7.91\n\n       198      8.04\n\n       199      8.17\n\n       200      8.30\n\n       201      8.43\n\n       202      8.56\n\n       203      8.70\n\n       204      8.83\n\n       205      8.96\n\n       206      9.10\n\n       207      9.24\n\n       208      9.38\n\n       209      9.51\n\n       210      9.65\n\n       211      9.79\n\n       212      9.94\n\n       213     10.08\n\n       214     10.22\n\n       215     10.37\n\n       216     10.51\n\n       217     10.66\n\n       218     10.80\n\n       219     10.95\n\n       220     11.10\n\n       221     11.25\n\n       222     11.40\n\n       223     11.55\n\n       224     11.71\n\n       225     11.86\n\n       226     12.01\n\n       227     12.17\n\n       228     12.32\n\n       229     12.48\n\n       230     12.64\n\n       231     12.80\n\n       232     12.96\n\n       233     13.12\n\n       234     13.28\n\n       235     13.44\n\n       236     13.61\n\n       237     13.77\n\n       238     13.94\n\n       239     14.10\n\n       240     14.27\n\n       241     14.44\n\n       242     14.61\n\n       243     14.78\n\n       244     14.95\n\n       245     15.12\n\n       246     15.29\n\n       247     15.46\n\n       248     15.64\n\n       249     15.81\n\n       250     15.99\n\n       251     16.17\n\n       252     16.34\n\n       253     16.52\n\n       254     16.70\n\n       255     16.88\n\n       256     17.06\n\n       257     17.25\n\n       258     17.43\n\n       259     17.61\n\n       260     17.80\n\n       261     17.98\n\n       262     18.17\n\n       263     18.36\n\n       264     18.55\n\n       265     18.74\n\n       266     18.93\n\n       267     19.12\n\n       268     19.31\n\n       269     19.50\n\n       270     19.70\n\n       271     19.89\n\n       272     20.09\n\n       273     20.28\n\n       274     20.48\n\n       275     20.68\n\n       276     20.88\n\n       277     21.08\n\n       278     21.28\n\n       279     21.48\n\n       280     21.68\n\n       281     21.88\n\n       282     22.09\n\n       283     22.29\n\n       284     22.50\n\n       285     22.71\n\n       286     22.91\n\n       287     23.12\n\n       288     23.33\n\n       289     23.54\n\n       290     23.75\n\n       291     23.96\n\n       292     24.18\n\n       293     24.39\n\n       294     24.61\n\n       295     24.82\n\n       296     25.04\n\n       297     25.25\n\n       298     25.47\n\n       299     25.69\n\n       300     25.91\n\n       301     26.13\n\n       302     26.35\n\n       303     26.57\n\n       304     26.80\n\n       305     27.02\n\n       306     27.25\n\n       307     27.47\n\n       308     27.70\n\n       309     27.92\n\n       310     28.15\n\n       311     28.38\n\n       312     28.61\n\n       313     28.84\n\n       314     29.07\n\n       315     29.31\n\n       316     29.54\n\n       317     29.77\n\n       318     30.01",
  "codigoFLU": "81499200",
  "codigoPLU": "02347208",
  "ANA": true
}