{
  "MCA": 10,
  "medidas": 48,
  "FatorNivelCorrigido": 0,
  "CurvaChave": " 50      0.00\n        51      0.00\n        52      0.00\n        53      0.00\n        54      0.00\n        55      0.00\n        56      0.00\n        57      0.00\n        58      0.00\n        59      0.00\n        60      0.00\n        61      0.00\n        62      0.00\n        63      0.00\n        64      0.00\n        65      0.00\n        66      0.00\n        67      0.00\n        68      0.00\n        69      0.00\n        70      0.00\n        71      0.00\n        72      0.00\n        73      0.00\n        74      0.00\n        75      0.00\n        76      0.00\n        77      0.00\n        78      0.00\n        79      0.00\n        80      0.00\n        81      0.00\n        82      0.01\n        83      0.01\n        84      0.01\n        85      0.01\n        86      0.01\n        87      0.01\n        88      0.01\n        89      0.01\n        90      0.01\n        91      0.01\n        92      0.01\n        93      0.02\n        94      0.02\n        95      0.02\n        96      0.02\n        97      0.02\n        98      0.02\n        99      0.03\n       100      0.03\n       101      0.03\n       102      0.03\n       103      0.03\n       104      0.04\n       105      0.04\n       106      0.04\n       107      0.04\n       108      0.05\n       109      0.05\n       110      0.05\n       111      0.06\n       112      0.06\n       113      0.06\n       114      0.07\n       115      0.07\n       116      0.08\n       117      0.08\n       118      0.08\n       119      0.09\n       120      0.09\n       121      0.10\n       122      0.10\n       123      0.11\n       124      0.11\n       125      0.12\n       126      0.13\n       127      0.13\n       128      0.14\n       129      0.14\n       130      0.15\n       131      0.16\n       132      0.16\n       133      0.17\n       134      0.18\n       135      0.19\n       136      0.20\n       137      0.20\n       138      0.21\n       139      0.22\n       140      0.23\n       141      0.24\n       142      0.25\n       143      0.26\n       144      0.27\n       145      0.28\n       146      0.29\n       147      0.30\n       148      0.31\n       149      0.32\n       150      0.34\n       151      0.35\n       152      0.36\n       153      0.37\n       154      0.39\n       155      0.40\n       156      0.41\n       157      0.43\n       158      0.44\n       159      0.46\n       160      0.47\n       161      0.49\n       162      0.51\n       163      0.52\n       164      0.54\n       165      0.56\n       166      0.57\n       167      0.59\n       168      0.61\n       169      0.63\n       170      0.65\n       171      0.67\n       172      0.69\n       173      0.71\n       174      0.73\n       175      0.75\n       176      0.77\n       177      0.79\n       178      0.82\n       179      0.84\n       180      0.86\n       181      0.89\n       182      0.91\n       183      0.94\n       184      0.96\n       185      0.99\n       186      1.02\n       187      1.04\n       188      1.07\n       189      1.10\n       190      1.13\n       191      1.16\n       192      1.19\n       193      1.22\n       194      1.25\n       195      1.28\n       196      1.31\n       197      1.34\n       198      1.38\n       199      1.41\n       200      1.45\n       201      1.48\n       202      1.52\n       203      1.55\n       204      1.59\n       205      1.63\n       206      1.67\n       207      1.70\n       208      1.74\n       209      1.78\n       210      1.82\n       211      1.87\n       212      1.91\n       213      1.95\n       214      1.99\n       215      2.04\n       216      2.08\n       217      2.13\n       218      2.17\n       219      2.22\n       220      2.27\n       221      2.32\n       222      2.37\n       223      2.42\n       224      2.47\n       225      2.52\n       226      2.57\n       227      2.62\n       228      2.68\n       229      2.73\n       230      2.79\n       231      2.84\n       232      2.90\n       233      2.96\n       234      3.02\n       235      3.08\n       236      3.14\n       237      3.20\n       238      3.26\n       239      3.32\n       240      3.38\n       241      3.45\n       242      3.51\n       243      3.58\n       244      3.65\n       245      3.72\n       246      3.79\n       247      3.86\n       248      3.93\n       249      4.00\n       250      4.07\n       251      4.14\n       252      4.22\n       253      4.30\n       254      4.37\n       255      4.45\n       256      4.53\n       257      4.61\n       258      4.69\n       259      4.77\n       260      4.85\n       261      4.94\n       262      5.02\n       263      5.11\n       264      5.19\n       265      5.28\n       266      5.37\n       267      5.46\n       268      5.55\n       269      5.64\n       270      5.74\n       271      5.83\n       272      5.93\n       273      6.02\n       274      6.12\n       275      6.22\n       276      6.32\n       277      6.42\n       278      6.52\n       279      6.63\n       280      6.73\n       281      6.84\n       282      6.94\n       283      7.05\n       284      7.16\n       285      7.27\n       286      7.38\n       287      7.50\n       288      7.61\n       289      7.73\n       290      7.85\n       291      7.96\n       292      8.08\n       293      8.20\n       294      8.33\n       295      8.45\n       296      8.57\n       297      8.70\n       298      8.83\n       299      8.96\n       300      9.09\n       301      9.22\n       302      9.35\n       303      9.48\n       304      9.62\n       305      9.76\n       306      9.90\n       307     10.04\n       308     10.18\n       309     10.32\n       310     10.46\n       311     10.61\n       312     10.76\n       313     10.90\n       314     11.05\n       315     11.21\n       316     11.36\n       317     11.51\n       318     11.67\n       319     11.83\n       320     11.99\n       321     12.15\n       322     12.31\n       323     12.47\n       324     12.64\n       325     12.80\n       326     12.97\n       327     13.14\n       328     13.31\n       329     13.49\n       330     13.66\n       331     13.84\n       332     14.02\n       333     14.19\n       334     14.38\n       335     14.56\n       336     14.74\n       337     14.93\n       338     15.12\n       339     15.31\n       340     15.50\n       341     15.69\n       342     15.89\n       343     16.08\n       344     16.28\n       345     16.48\n       346     16.68\n       347     16.89\n       348     17.09\n       349     17.30\n       350     17.51\n       351     17.72\n       352     17.93\n       353     18.15\n       354     18.36\n       355     18.58\n       356     18.80\n       357     19.02\n       358     19.25\n       359     19.47\n       360     19.70\n       361     19.93\n       362     20.16\n       363     20.40\n       364     20.63\n       365     20.87\n       366     21.11\n       367     21.35\n       368     21.59\n       369     21.84\n       370     22.09\n       371     22.34\n       372     22.59\n       373     22.84\n       374     23.10\n       375     23.35\n       376     23.61\n       377     23.87\n       378     24.14\n       379     24.40\n       380     24.67\n       381     24.94\n       382     25.21\n       383     25.49\n       384     25.77\n       385     26.04\n       386     26.32\n       387     26.61\n       388     26.89\n       389     27.18\n       390     27.47\n       391     27.76\n       392     28.06\n       393     28.35\n       394     28.65\n       395     28.95\n       396     29.25\n       397     29.56\n       398     29.87\n       399     30.18\n       400     30.49\n       401     30.80\n       402     31.12\n       403     31.44\n       404     31.76\n       405     32.09\n       406     32.41\n       407     32.74\n       408     33.07\n       409     33.41\n       410     33.74\n       411     34.08\n       412     34.42\n       413     34.76\n       414     35.11\n       415     35.46\n       416     35.81\n       417     36.16\n       418     36.52\n       419     36.88\n       420     37.24\n       421     37.60\n       422     37.97\n       423     38.34\n       424     38.71\n       425     39.08\n       426     39.46\n       427     39.84\n       428     40.22\n       429     40.60\n       430     40.99\n       431     41.38\n       432     41.77\n       433     42.16\n       434     42.56\n       435     42.96\n       436     43.36\n       437     43.77\n       438     44.18\n       439     44.59\n       440     45.00\n       441     45.42\n       442     45.84\n       443     46.26\n       444     46.69\n       445     47.11\n       446     47.55\n       447     47.98\n       448     48.41\n       449     48.85\n       450     49.30\n       451     49.74\n       452     50.19\n       453     50.64\n       454     51.09\n       455     51.55\n       456     52.01\n       457     52.47\n       458     52.94\n       459     53.40\n       460     53.88\n       461     54.35\n       462     54.83\n       463     55.31\n       464     55.79\n       465     56.28\n       466     56.77\n       467     57.26\n       468     57.76\n       469     58.25\n       470     58.76\n       471     59.26\n       472     59.77\n       473     60.28\n       474     60.79\n       475     61.31\n       476     61.83\n       477     62.36\n       478     62.88\n       479     63.41\n       480     63.95\n       481     64.48\n       482     65.02\n       483     65.57\n       484     66.11\n       485     66.66\n       486     67.22\n       487     67.77\n       488     68.33\n       489     68.89\n       490     69.46\n       491     70.03\n       492     70.60\n       493     71.18\n       494     71.76\n       495     72.34\n       496     72.93\n       497     73.52\n       498     74.11\n       499     74.71\n       500     75.31\n       501     75.91\n       502     76.52\n       503     77.13\n       504     77.75\n       505     78.37\n       506     78.99\n       507     79.61\n       508     80.24\n       509     80.87\n       510     81.51\n       511     82.15\n       512     82.79\n       513     83.44\n       514     84.09\n       515     84.74\n       516     85.40\n       517     86.06\n       518     86.72\n       519     87.39\n       520     88.07\n       521     88.74\n       522     89.42\n       523     90.10\n       524     90.79\n       525     91.48\n       526     92.18\n       527     92.88\n       528     93.58\n       529     94.29\n       530     95.00\n       531     95.71\n       532     96.43\n       533     97.15\n       534     97.87\n       535     98.60\n       536     99.34\n       537    100.08\n       538    100.82\n       539    101.56\n       540    102.31\n       541    103.06\n       542    103.82\n       543    104.58\n       544    105.35\n       545    106.12\n       546    106.89\n       547    107.67\n       548    108.45\n       549    109.24\n       550    110.03\n       551    110.82\n       552    111.62\n       553    112.42\n       554    113.23\n       555    114.04\n       556    114.85\n       557    115.67\n       558    116.49\n       559    117.32\n       560    118.15\n       561    118.99\n       562    119.83\n       563    120.67\n       564    121.52\n       565    122.37\n       566    123.23\n       567    124.09\n       568    124.96\n       569    125.83\n       570    126.70\n       571    127.58\n       572    128.46\n       573    129.35\n       574    130.24\n       575    131.14\n       576    132.04\n       577    132.95\n       578    133.85\n       579    134.77\n       580    135.69\n       581    136.61\n       582    137.54\n       583    138.47\n       584    139.41\n       585    140.35\n       586    141.30\n       587    142.25\n       588    143.20\n       589    144.16\n       590    145.13\n       591    146.10\n       592    147.07\n       593    148.05\n       594    149.03\n       595    150.02\n       596    151.01\n       597    152.01\n       598    153.01\n       599    154.02\n       600    155.03\n       601    156.05\n       602    157.07\n       603    158.10\n       604    159.13\n       605    160.16\n       606    161.20\n       607    162.25\n       608    163.30\n       609    164.36\n       610    165.42\n       611    166.48\n       612    167.55\n       613    168.63\n       614    169.71\n       615    170.79\n       616    171.88\n       617    172.98\n       618    174.08\n       619    175.18\n       620    176.29\n       621    177.41\n       622    178.53\n       623    179.65\n       624    180.79\n       625    181.92\n       626    183.06\n       627    184.21\n       628    185.36\n       629    186.52\n       630    187.68\n       631    188.84\n       632    190.02\n       633    191.19\n       634    192.38\n       635    193.56\n       636    194.76\n       637    195.96\n       638    197.16\n       639    198.37\n       640    199.58\n       641    200.80\n       642    202.03\n       643    203.26\n       644    204.49\n       645    205.74\n       646    206.98\n       647    208.23\n       648    209.49\n       649    210.76\n       650    212.02\n       651    213.30\n       652    214.58\n       653    215.86\n       654    217.15\n       655    218.45\n       656    219.75\n       657    221.06\n       658    222.37\n       659    223.69\n       660    225.02\n       661    226.35\n       662    227.68\n       663    229.02\n       664    230.37\n       665    231.72\n       666    233.08\n       667    234.45\n       668    235.82\n       669    237.19\n       670    238.57\n       671    239.96\n       672    241.35\n       673    242.75\n       674    244.16\n       675    245.57\n       676    246.99\n       677    248.41\n       678    249.84\n       679    251.27\n       680    252.71\n       681    254.16\n       682    255.61\n       683    257.07\n       684    258.53\n       685    260.00\n       686    261.48\n       687    262.96\n       688    264.45\n       689    265.94\n       690    267.44\n       691    268.95\n       692    270.46\n       693    271.98\n       694    273.51\n       695    275.04\n       696    276.58\n       697    278.12\n       698    279.67\n       699    281.23\n       700    282.79\n       701    284.36\n       702    285.93\n       703    287.51\n       704    289.10\n       705    290.69\n       706    292.29\n       707    293.90\n       708    295.51\n       709    297.13\n       710    298.76\n       711    300.39\n       712    302.03\n       713    303.67\n       714    305.32\n       715    306.98\n       716    308.64\n       717    310.31\n       718    311.99\n       719    313.68\n       720    315.37\n       721    317.06\n       722    318.77\n       723    320.48\n       724    322.19\n       725    323.92\n       726    325.65\n       727    327.38\n       728    329.13\n       729    330.88\n       730    332.63\n       731    334.40\n       732    336.17\n       733    337.94\n       734    339.73\n       735    341.52\n       736    343.31\n       737    345.12\n       738    346.93\n       739    348.75\n       740    350.57\n       741    352.40\n       742    354.24\n       743    356.09\n       744    357.94\n       745    359.80\n       746    361.66\n       747    363.54\n       748    365.42\n       749    367.30\n       750    369.20\n       751    371.10\n       752    373.01\n       753    374.92\n       754    376.85\n       755    378.78\n       756    380.71\n       757    382.66\n       758    384.61\n       759    386.57\n       760    388.53\n       761    390.50\n       762    392.48\n       763    394.47\n       764    396.46\n       765    398.47\n       766    400.47\n       767    402.49\n       768    404.51\n       769    406.54\n       770    408.58\n       771    410.63\n       772    412.68\n       773    414.74\n       774    416.81\n       775    418.88\n       776    420.97\n       777    423.06\n       778    425.15\n       779    427.26\n       780    429.37\n       781    431.49\n       782    433.62\n       783    435.75\n       784    437.90\n       785    440.05\n       786    442.21\n       787    444.37\n       788    446.54\n       789    448.73\n       790    450.91\n       791    453.11\n       792    455.31\n       793    457.53\n       794    459.75\n       795    461.97\n       796    464.21\n       797    466.45\n       798    468.70\n       799    470.96\n       800    473.23\n       801    475.50\n       802    477.78\n       803    480.07\n       804    482.37\n       805    484.68\n       806    486.99\n       807    489.31\n       808    491.64\n       809    493.98\n       810    496.32\n       811    498.68\n       812    501.04\n       813    503.41\n       814    505.79\n       815    508.17\n       816    510.57\n       817    512.97\n       818    515.38\n       819    517.80\n       820    520.23\n       821    522.66\n       822    525.10\n       823    527.55\n       824    530.01\n       825    532.48\n       826    534.96\n       827    537.44\n       828    539.94\n       829    542.44\n       830    544.95\n       831    547.46\n       832    549.99\n       833    552.53\n       834    555.07\n       835    557.62\n       836    560.18\n       837    562.75\n       838    565.33\n       839    567.91\n       840    570.51\n       841    573.11\n       842    575.72\n       843    578.34\n       844    580.97\n       845    583.60\n       846    586.25\n       847    588.90\n       848    591.57\n       849    594.24\n       850    596.92\n       851    599.61\n       852    602.31\n       853    605.01\n       854    607.73\n       855    610.45\n       856    613.18\n       857    615.93\n       858    618.68\n       859    621.44\n       860    624.20\n       861    626.98\n       862    629.77\n       863    632.56\n       864    635.37\n       865    638.18\n       866    641.00\n       867    643.83\n       868    646.67\n       869    649.52\n       870    652.38\n       871    655.25\n       872    658.12\n       873    661.01\n       874    663.90\n       875    666.81\n       876    669.72\n       877    672.64\n       878    675.57\n       879    678.51\n       880    681.46\n       881    684.42\n       882    687.39\n       883    690.36\n       884    693.35\n       885    696.35\n       886    699.35\n       887    702.37\n       888    705.39\n       889    708.42\n       890    711.47\n       891    714.52\n       892    717.58\n       893    720.65\n       894    723.73\n       895    726.82\n       896    729.92\n       897    733.03\n       898    736.15\n       899    739.28\n       900    742.42\n       901    745.56\n       902    748.72\n       903    751.89\n       904    755.06\n       905    758.25\n       906    761.44\n       907    764.65\n       908    767.87\n       909    771.09\n       910    774.32\n       911    777.57\n       912    780.82\n       913    784.09\n       914    787.36\n       915    790.65\n       916    793.94\n       917    797.24\n       918    800.56\n       919    803.88\n       920    807.21\n       921    810.56\n       922    813.91\n       923    817.27\n       924    820.65\n       925    824.03\n       926    827.42\n       927    830.83\n       928    834.24\n       929    837.66\n       930    841.10\n       931    844.54\n       932    848.00\n       933    851.46\n       934    854.93\n       935    858.42\n       936    861.91\n       937    865.42\n       938    868.94\n       939    872.46\n       940    876.00\n       941    879.54\n       942    883.10\n       943    886.67\n       944    890.25\n       945    893.83\n       946    897.43\n       947    901.04\n       948    904.66\n       949    908.29\n       950    911.93\n       951    915.58\n       952    919.24\n       953    922.92\n       954    926.60\n       955    930.29\n       956    934.00\n       957    937.71\n       958    941.44\n       959    945.17\n       960    948.92\n       961    952.68\n       962    956.44\n       963    960.22\n       964    964.01\n       965    967.81\n       966    971.62\n       967    975.44\n       968    979.28\n       969    983.12\n       970    986.98\n       971    990.84\n       972    994.72\n       973    998.60\n       974   1002.50\n       975   1006.41\n       976   1010.33\n       977   1014.26\n       978   1018.21\n       979   1022.16\n       980   1026.12\n       981   1030.10\n       982   1034.08\n       983   1038.08\n       984   1042.09\n       985   1046.11\n       986   1050.14\n       987   1054.18\n       988   1058.24\n       989   1062.30\n       990   1066.38\n       991   1070.47\n       992   1074.57\n       993   1078.68\n       994   1082.80\n       995   1086.93\n       996   1091.07\n       997   1095.23\n       998   1099.40\n       999   1103.57\n      1000   1107.76",
  "codigoPLU": 1239043,
  "codigoFLU": 51346050,
  "ANA": true
}