{
  "MCA": 10,
  "medidas": 48,
  "FatorNivelCorrigido": 7,
  "CurvaChave": "20      0.01\n        21      0.01\n        22      0.02\n        23      0.03\n        24      0.05\n        25      0.06\n        26      0.08\n        27      0.11\n        28      0.13\n        29      0.16\n        30      0.19\n        31      0.23\n        32      0.27\n        33      0.31\n        34      0.35\n        35      0.40\n        36      0.45\n        37      0.51\n        38      0.57\n        39      0.63\n        40      0.69\n        41      0.76\n        42      0.84\n        43      0.91\n        44      0.99\n        45      1.08\n        46      1.16\n        47      1.25\n        48      1.35\n        49      1.45\n        50      1.55\n        51      1.66\n        52      1.77\n        53      1.88\n        54      2.00\n        55      2.12\n        56      2.25\n        57      2.37\n        58      2.51\n        59      2.65\n        60      2.79\n        61      2.93\n        62      3.08\n        63      3.24\n        64      3.39\n        65      3.56\n        66      3.72\n        67      3.89\n        68      4.07\n        69      4.24\n        70      4.43\n        71      4.61\n        72      4.80\n        73      5.00\n        74      5.20\n        75      5.40\n        76      5.61\n        77      5.82\n        78      6.04\n        79      6.26\n        80      6.49\n        81      6.71\n        82      6.95\n        83      7.19\n        84      7.43\n        85      7.68\n        86      7.93\n        87      8.18\n        88      8.44\n        89      8.71\n        90      8.98\n        91      9.25\n        92      9.53\n        93      9.81\n        94     10.10\n        95     10.39\n        96     10.69\n        97     10.99\n        98     11.29\n        99     11.60\n       100     11.92\n       101     12.24\n       102     12.56\n       103     12.89\n       104     13.22\n       105     13.56\n       106     13.90\n       107     14.25\n       108     14.60\n       109     14.95\n       110     15.32\n       111     15.68\n       112     16.05\n       113     16.43\n       114     16.80\n       115     17.19\n       116     17.58\n       117     17.97\n       118     18.37\n       119     18.77\n       120     19.18\n       121     19.59\n       122     20.01\n       123     20.43\n       124     20.86\n       125     21.29\n       126     21.73\n       127     22.17\n       128     22.62\n       129     23.07\n       130     23.53\n       131     23.99\n       132     24.45\n       133     24.92\n       134     25.40\n       135     25.88\n       136     26.37\n       137     26.86\n       138     27.35\n       139     27.85\n       140     28.36\n       141     28.87\n       142     29.38\n       143     29.90\n       144     30.43\n       145     30.96\n       146     31.50\n       147     32.04\n       148     32.58\n       149     33.13\n       150     33.69\n       151     34.25\n       152     34.81\n       153     35.38\n       154     35.96\n       155     36.54\n       156     37.12\n       157     37.71\n       158     38.31\n       159     38.91\n       160     39.52\n       161     40.13\n       162     40.74\n       163     41.37\n       164     41.99\n       165     42.62\n       166     43.26\n       167     43.90\n       168     44.55\n       169     45.20\n       170     45.86\n       171     46.52\n       172     47.19\n       173     47.86\n       174     48.54\n       175     49.22\n       176     49.91\n       177     50.60\n       178     51.30\n       179     52.01\n       180     52.72\n       181     53.43\n       182     54.15\n       183     54.88\n       184     55.61\n       185     56.34\n       186     57.08\n       187     57.83\n       188     58.58\n       189     59.34\n       190     60.10\n       191     60.87\n       192     61.64\n       193     62.42\n       194     63.20\n       195     63.99\n       196     64.78\n       197     65.58\n       198     66.39\n       199     67.20\n       200     68.01\n       201     68.83\n       202     69.66\n       203     70.49\n       204     71.33\n       205     72.17\n       206     73.02\n       207     73.87\n       208     74.73\n       209     75.59\n       210     76.46\n       211     77.33\n       212     78.21\n       213     79.10\n       214     79.99\n       215     80.89\n       216     81.79\n       217     82.69\n       218     83.61\n       219     84.52\n       220     85.45\n       221     86.38\n       222     87.31\n       223     88.25\n       224     89.20\n       225     90.15\n       226     91.10\n       227     92.07\n       228     93.03\n       229     94.01\n       230     94.98\n       231     95.97\n       232     96.96\n       233     97.95\n       234     98.95\n       235     99.96\n       236    100.97\n       237    101.99\n       238    103.01\n       239    104.04\n       240    105.07\n       241    106.11\n       242    107.16\n       243    108.21\n       244    109.26\n       245    110.33\n       246    111.39\n       247    112.47\n       248    113.54\n       249    114.63\n       250    115.72\n       251    116.81\n       252    117.92\n       253    119.02\n       254    120.13\n       255    121.25\n       256    122.38\n       257    123.50\n       258    124.64\n       259    125.78\n       260    126.93\n       261    128.08\n       262    129.24\n       263    130.40\n       264    131.57\n       265    132.74\n       266    133.92\n       267    135.11\n       268    136.30\n       269    137.50\n       270    138.70\n       271    139.91\n       272    141.12\n       273    142.34\n       274    143.57\n       275    144.80\n       276    146.04\n       277    147.28\n       278    148.53\n       279    149.79\n       280    151.05\n       281    152.31\n       282    153.58\n       283    154.86\n       284    156.15\n       285    157.43\n       286    158.73\n       287    160.03\n       288    161.34\n       289    162.65\n       290    163.97\n       291    165.29\n       292    166.62\n       293    167.96\n       294    169.30\n       295    170.64\n       296    172.00\n       297    173.36\n       298    174.72\n       299    176.09\n       300    177.47\n       301    178.85\n       302    180.24\n       303    181.63\n       304    183.03\n       305    184.44\n       306    185.85\n       307    187.27\n       308    188.69\n       309    190.12\n       310    191.55\n       311    192.99\n       312    194.44\n       313    195.89\n       314    197.35\n       315    198.82\n       316    200.29\n       317    201.76\n       318    203.24\n       319    204.73\n       320    206.23\n       321    207.72\n       322    209.23\n       323    210.74\n       324    212.26\n       325    213.78\n       326    215.31\n       327    216.85\n       328    218.39\n       329    219.94\n       330    221.49\n       331    223.05\n       332    224.61\n       333    226.19\n       334    227.76\n       335    229.35\n       336    230.93\n       337    232.53\n       338    234.13\n       339    235.74\n       340    237.35\n       341    238.97\n       342    240.59\n       343    242.22\n       344    243.86\n       345    245.50\n       346    247.15\n       347    248.81\n       348    250.47\n       349    252.14\n       350    253.81\n       351    255.49\n       352    257.17\n       353    258.86\n       354    260.56\n       355    262.27\n       356    263.97\n       357    265.69\n       358    267.41\n       359    269.14\n       360    270.87\n       361    272.61\n       362    274.36\n       363    276.11\n       364    277.87\n       365    279.63\n       366    281.40\n       367    283.18\n       368    284.96\n       369    286.75\n       370    288.54\n       371    290.34\n       372    292.15\n       373    293.96\n       374    295.78\n       375    297.60\n       376    299.43\n       377    301.27\n       378    303.12\n       379    304.96\n       380    306.82\n       381    308.68\n       382    310.55\n       383    312.42\n       384    314.30\n       385    316.19\n       386    318.08\n       387    319.98\n       388    321.88\n       389    323.80\n       390    325.71\n       391    327.64\n       392    329.56\n       393    331.50\n       394    333.44\n       395    335.39\n       396    337.34\n       397    339.30\n       398    341.27\n       399    343.24\n       400    345.22",
  "codigoPLU": "2143069",
  "codigoFLU": "58512080",
  "ANA": true
}