{
  "MCA": 10,
  "medidas": 48,
  "FatorNivelCorrigido": 245,
  "CurvaChave": "175      0.00\n       176      0.01\n       177      0.04\n       178      0.08\n       179      0.13\n       180      0.19\n       181      0.26\n       182      0.33\n       183      0.41\n       184      0.50\n       185      0.59\n       186      0.70\n       187      0.80\n       188      0.92\n       189      1.04\n       190      1.16\n       191      1.30\n       192      1.43\n       193      1.57\n       194      1.72\n       195      1.87\n       196      2.03\n       197      2.19\n       198      2.36\n       199      2.53\n       200      2.71\n       201      2.89\n       202      3.08\n       203      3.27\n       204      3.47\n       205      3.67\n       206      3.87\n       207      4.08\n       208      4.29\n       209      4.51\n       210      4.73\n       211      4.96\n       212      5.19\n       213      5.42\n       214      5.66\n       215      5.90\n       216      6.15\n       217      6.40\n       218      6.65\n       219      6.91\n       220      7.17\n       221      7.44\n       222      7.71\n       223      7.98\n       224      8.26\n       225      8.54\n       226      8.83\n       227      9.11\n       228      9.41\n       229      9.70\n       230     10.00\n       231     10.30\n       232     10.61\n       233     10.92\n       234     11.23\n       235     11.55\n       236     11.87\n       237     12.19\n       238     12.52\n       239     12.85\n       240     13.19\n       241     13.52\n       242     13.86\n       243     14.21\n       244     14.56\n       245     14.91\n       246     15.26\n       247     15.62\n       248     15.98\n       249     16.34\n       250     16.71\n       251     17.08\n       252     17.45\n       253     17.83\n       254     18.21\n       255     18.59\n       256     18.98\n       257     19.37\n       258     19.76\n       259     20.16\n       260     20.56\n       261     20.96\n       262     21.36\n       263     21.77\n       264     22.18\n       265     22.60\n       266     23.02\n       267     23.44\n       268     23.86\n       269     24.28\n       270     24.71\n       271     25.15\n       272     25.58\n       273     26.02\n       274     26.46\n       275     26.90\n       276     27.35\n       277     27.80\n       278     28.25\n       279     28.71\n       280     29.17\n       281     29.63\n       282     30.09\n       283     30.56\n       284     31.03\n       285     31.50\n       286     31.98\n       287     32.46\n       288     32.94\n       289     33.42\n       290     33.91\n       291     34.40\n       292     34.89\n       293     35.38\n       294     35.88\n       295     36.38\n       296     36.89\n       297     37.39\n       298     37.90\n       299     38.41\n       300     38.93\n       301     39.44\n       302     39.96\n       303     40.48\n       304     41.01\n       305     41.54\n       306     42.07\n       307     42.60\n       308     43.14\n       309     43.67\n       310     44.22\n       311     44.76\n       312     45.30\n       313     45.85\n       314     46.40\n       315     46.96\n       316     47.52\n       317     48.07\n       318     48.64\n       319     49.20\n       320     49.77\n       321     50.34\n       322     50.91\n       323     51.48\n       324     52.06\n       325     52.64\n       326     53.22\n       327     53.81\n       328     54.39\n       329     54.98\n       330     55.58\n       331     56.17\n       332     56.77\n       333     57.37\n       334     57.97\n       335     58.58\n       336     59.18\n       337     59.79\n       338     60.40\n       339     61.02\n       340     61.64\n       341     62.26\n       342     62.88\n       343     63.50\n       344     64.13\n       345     64.76\n       346     65.39\n       347     66.03\n       348     66.66\n       349     67.30\n       350     67.94\n       351     68.59\n       352     69.23\n       353     69.88\n       354     70.53\n       355     71.19\n       356     71.84\n       357     72.50\n       358     73.16\n       359     73.82\n       360     74.49\n       361     75.16\n       362     75.83\n       363     76.50\n       364     77.17\n       365     77.85\n       366     78.53\n       367     79.21\n       368     79.90\n       369     80.58\n       370     81.27\n       371     81.96\n       372     82.66\n       373     83.35\n       374     84.05\n       375     84.75\n       376     85.45\n       377     86.16\n       378     86.86\n       379     87.57\n       380     88.29\n       381     89.00\n       382     89.72\n       383     90.44\n       384     91.16\n       385     91.88\n       386     92.60\n       387     93.33\n       388     94.06\n       389     94.79\n       390     95.53\n       391     96.27\n       392     97.00\n       393     97.75\n       394     98.49\n       395     99.23\n       396     99.98\n       397    100.73\n       398    101.48\n       399    102.24\n       400    103.00\n       401    103.75\n       402    104.52\n       403    105.28\n       404    106.04\n       405    106.81\n       406    107.58\n       407    108.35\n       408    109.13\n       409    109.90\n       410    110.68\n       411    111.46\n       412    112.25\n       413    113.03\n       414    113.82\n       415    114.61\n       416    115.40\n       417    116.19\n       418    116.99\n       419    117.79\n       420    118.59\n       421    119.39\n       422    120.19\n       423    121.00\n       424    121.81\n       425    122.62\n       426    123.43\n       427    124.25\n       428    125.07\n       429    125.89\n       430    126.71\n       431    127.53\n       432    128.36\n       433    129.18\n       434    130.01\n       435    130.85\n       436    131.68\n       437    132.52\n       438    133.36\n       439    134.20\n       440    135.04\n       441    135.88\n       442    136.73\n       443    137.58\n       444    138.43\n       445    139.28\n       446    140.14\n       447    140.99\n       448    141.85\n       449    142.71\n       450    143.58\n       451    144.44\n       452    145.31\n       453    146.18\n       454    147.05\n       455    147.92\n       456    148.80\n       457    149.68\n       458    150.56\n       459    151.44\n       460    152.32\n       461    153.21\n       462    154.10\n       463    154.99\n       464    155.88\n       465    156.77\n       466    157.67\n       467    158.57\n       468    159.47\n       469    160.37\n       470    161.27\n       471    162.18\n       472    163.09\n       473    164.00\n       474    164.91\n       475    165.82\n       476    166.74\n       477    167.66\n       478    168.58\n       479    169.50\n       480    170.42\n       481    171.35\n       482    172.28\n       483    173.21\n       484    174.14\n       485    175.07\n       486    176.01\n       487    176.95\n       488    177.89\n       489    178.83\n       490    179.77\n       491    180.72\n       492    181.66\n       493    182.61\n       494    183.57\n       495    184.52\n       496    185.47\n       497    186.43\n       498    187.39\n       499    188.35\n       500    189.32",
  "codigoPLU": "2143079",
  "codigoFLU": "58521085",
  "ANA": true
}